url,place,dateTime,description,sources,id
https://rr0.org/time/1/9/5/4/10/24/index.html,,1954-10-24,"A Ain-el-Turck (Algérie), 1 petit homme aux yeux étrangement incandescents est vu sur la côte méditerranéenne Quincy, Guy:.","",1954-10-24
https://rr0.org/time/1/9/5/4/10/24/index.html,,1954-10-24,"A Les Egots (France), 1 enfant voit 1 homme sortir d'un engin étrange : Ses vêtements étaient rouges et avaient l'aspect du fer. Il marchait avec les jambes raides, avait de longs cheveux et un visage poilu. Ses yeux étaient aussi grands que ceux d'une vache.","",1954-10-24
https://rr0.org/time/1/9/5/4/10/24/index.html,,1954-10-24,"Entre le village de Biozat (France) et Effiat, sur la route allant de Clermont à Vichy, le moteur d'un scooter cale au moment où 1 objet en forme d'œuf décolle du bord de la route et s'élevait sans bruit, laissant derrière lui une traînée lumineuse.","",1954-10-24
https://rr0.org/time/1/9/5/4/10/24/index.html,,1954-10-24,"Ebloui par une soucoupe volante, un automobiliste heurte un arbre près de Poitiers et se blesse, ainsi que son compagnon de route Combaldieu, R.: ""Soucoupes volantes, Martiens et... droit pénal"", Revue de Science Criminelle et de Droit Pénal Comparé n° 4, Nouvelle Série, octobre-décembre 1954, publié avec le concours du CNRS, pp. 751.","",1954-10-24