url,place,dateTime,description,sources,id
https://rr0.org/time/1/9/8/5/03/index.html,,1985-03,"À Saint Seine-L'Abbaye, Côte d'Or, un témoin et toute sa famille vont apercevoir durant P15M 1 boule de couleur flamme de 1 m de diamètre qui laisse des traces de même couleur dans son sillage. Cet objet se déplace lentement à une altitude de 800 m environ, mais en suivant le relief. Aucun bruit n'est remarqué GEPAN: PAN classé C.","",1985-03
https://rr0.org/time/1/9/8/5/03/index.html,,1985-03,"À partir du 8 et pendant plusieurs jours A Nanterre, Hauts-de-Seine, 1 témoin aperçoit depuis la fenêtre de son appartement au 14ᵉ étage, une lueur ""comme une étoile"" qui se déplace lentement. Le alors qu'il filme la lueur, celle-ci semble soudain se diriger vers le témoin. Celui-ci prend peur et se réfugie chez des voisins. Après enquête, il semble que le témoin ait aperçu Jupiter particulièrement visible en cette période de l'année SEPRA: PAN classé B.","",1985-03
https://rr0.org/time/1/9/8/5/03/index.html,,1985-03,"2 fois dans le courant du mois À Montpellier, Hérault, 1 témoin observe 1 point particulièrement lumineux et qui se déplace très lentement, mais progressivement dans la voute celeste L'enquête du GEPAN concluera qu'il s'agit de la planète Vénus particulièrement lumineuse et donc visible en cette période de l'année GEPAN: PAN classé A.","",1985-03