url,place,dateTime,description,sources,id
https://rr0.org/time/1/9/9/5/10/index.html,,1995-10,"A Etables-sur-Mer, Côtes d'Armor, 1 témoin dans sa voiture observe 1 objet de forme cylindrique de couleur aluminium. Pendant P1M il observe 1 forte lumière orangée venant d'un cylindre d'environ 1 m de diamètre. Aucun bruit n'est remarqué SEPRA: PAN classé C.","",1995-10
https://rr0.org/time/1/9/9/5/10/index.html,,1995-10,Découverte de la 1ʳᵉ planète extra-solaire.,"",1995-10
https://rr0.org/time/1/9/9/5/10/index.html,,1995-10,"Atterrissage d'un ovni sur le Cerro San Cristobal (Chili) en plein Santiago (Chili) VSD 2007 H. Diverses observations dans les communes de Santiago (Chili), notamment à Rancagua (Chili), à 100 km au Sud. L'un des témoins voit un objet qui s'élève en lançant une lumière si forte qu'il ne peut continuer à la regarder VSD 2007 H.","",1995-10
https://rr0.org/time/1/9/9/5/10/index.html,,1995-10,"En Italie, un prêtre du Vatican, monseigneur Corrado Balducci, déclare à la télévision nationale que les extraterrestres existent.","",1995-10
https://rr0.org/time/1/9/9/5/10/index.html,,1995-10,"Au cours d'une émission de télévision sur TF1, le présentateur Jacques Pradel propose une interview de Valery Pavlovitch Bourdakov, scientifique russe membre de l'Agence Spatiale et de l'Académie des Sciences de son pays. Lorsque Bourdakov était l'un des adjoints de l'ingénieur Sergueï Korolev, le patron des programmes de fusées de l'ex-URSS, ce dernier lui fit d'étonnantes confidences : un jour de 1948, Joseph Staline avait demandé à Korolev de venir au Kremlin pour étudier les rapports d'observations d'ovnis collectés par les espions Pradel. Après 3 jours passés à examiner toute cette documentation, Korolev dit à Staline que le problème était sérieux mais qu'il ne menaçait pas la sécurité de l'URSS. Toutefois, il recommande de suivre de près l'évolution de la situation. Parmi les rapports, selon Bourdakov, certains étaient relatifs à l'incident de Roswell sur la récupération d'un appareil inconnu et d'autres faisaient état de corps d'extraterrestres décédés qui avaient été découverts en cette occasion.","",1995-10
https://rr0.org/time/1/9/9/5/10/index.html,,1995-10,"A Coulange-sur-Yonne (Yonne), 2 témoins situés à 2 endroits différents observent durant quelques s 1 sphère lumineuse avec une trainée et semblant chuter. Aucun bruit n'est perçu de ce qui est probablement une rentrée atmosphérique SEPRA: PAN classé B.","",1995-10
https://rr0.org/time/1/9/9/5/10/index.html,,1995-10,A. Zolotov (scientifique et ufologue) est assassiné à Tver.,"",1995-10