url,place,dateTime,description,sources,id
https://rr0.org/time/1/9/0/9/07/index.html,,1909-07,"Selon le Daily News de Londres, l'aéronef vu voler au-dessus de diverses parties de l'Angleterre en mai dernier était un appareil de 300 livres qui fut inventé et construit par le Dr. Boyd, qui déclare avoir lors de ses vols expérimentaux traversé l'Irish Channel à une vitesse de 32 miles/h , couvrant une distance totale de 90 miles Herald de Lethbridge (Alberta), 9 juillet 1909, p. 3 < Flood, Chuck: """"According to the London Daily News, the airship seen flying about various parts of England last May..""; Lethbridge (Alberta) Herald, July 9, 1909"", Magonia Exchange, 20 août 2007.","",1909-07
https://rr0.org/time/1/9/0/9/07/index.html,,1909-07,"Près de Greymouth (Nouvelle-Zélande), plusieurs témoins observent une lumière monter lentement sur une chaîne montagneuse ""Seen Near Greymouth"", Witness de Otago (Nouvelle-Zélande), 2 août 1909.","",1909-07
https://rr0.org/time/1/9/0/9/07/index.html,,1909-07,"Mme Russel, une institutrice accompagnant un groupe d'enfants à Kelso (sud de la Nouvelle-Zélande), voit soudain une sorte d'éclair de noirceur filer au-dessus de la colline sur la gauche et se diriger apparemment droit sur elle. Puis il obliqua soudain et fit un écart au-dessus des arbres et disparaît hors de sa vue. Elle ressentit une peur intense lorsqu'elle le vit. On aurait dit un bateau de couleur noire. Elle ne le vit que quelques minutes. À son arrivée, il se déplaçait à grande vitesse, mais lorsqu'il vira de bord, il perdit de l'altitude et ralentit quelque peu The Evening Star, 30 juillet 1909.","",1909-07
https://rr0.org/time/1/9/0/9/07/index.html,,1909-07,"Quelques jeunes garçons étaient en train de jouer sur la plage à Kaka Point, [quand ils] virent un énorme objet lumineux se déplaçant dans les airs. Il semblait sur le point de se poser... Les garçons, pensant qu'il était attiré par leur lanterne, la laissèrent sur la plage. Le vaisseau plana alors autour des rochers de la vieille base nautique et arriva presque à leur niveau. Il disparut peu après. Selon eux, c'était aussi gros qu'une maison CluthaLeader de Balclutha, South Island, Nouvelle-Zélande. Un journaliste du Daily Times se rend même à Kelso pour rencontrer les témoins : On a interrogé séparément tous les élèves qui ont vu le vaisseau et on leur a demandé de dessiner ce qu'ils avaient vu. Le degré de ressemblance entre les 6 dessins était tout simplement extraordinaire.","",1909-07
https://rr0.org/time/1/9/0/9/07/index.html,,1909-07,"En Nouvelle-Zélande, on dénombre pas moins de 6 observations marquantes. 3 d'entre elles évoquent des ""cigares"" volants ou des aéronefs, tous équipés de projecteurs, de phares ou de lumières colorées. Une autre, faite par des habitants de Mount Rochefort et de Christchurch, concerne un ovni en forme de ""cône"". Quant aux 2 dernières observations, elles se rapportent à des lumières dont le comportement aérien défie les lois naturelles.","",1909-07
https://rr0.org/time/1/9/0/9/07/index.html,,1909-07,"Le long de la côte d'Otago de South Island (Nouvelle-Zélande) un objet en forme de cigare apparaît à plusieurs reprises au-dessus de Dunedin et de plus petites villes UFO Roundup, 4-36.","",1909-07
https://rr0.org/time/1/9/0/9/07/index.html,,1909-07,"entre 18:00 et 00:00 À Waikaia (SouthLand, Nouvelle-Zélande), observations d'une lumière puissante au voisinage de Dome Hill ""Seen at Waikaia"", Witness de Otago (Nouvelle-Zélande), 4 août 1909.","",1909-07
https://rr0.org/time/1/9/0/9/07/index.html,,1909-07,"1909-07-30 05:00 2 hommes qui travaillent dans la vallée de Waikaka, à quelques km au nord de la ville de Gore (sud de la Nouvelle-Zélande), aperçoivent soudain un objet volant inconnu en forme de coque de bateau plutôt étroite, avec un projecteur à chacune de ses extrémités. Il perd de l'altitude et va tourner au-dessus de la rivière pendant plusieurs mn. Ce qui est remarquable selon les témoins, c'est l'étrangeté de ses manœuvres : l'aéronef semble capable de freiner et d'accélérer brusquement, un peu comme une mouche, selon l'expression de F. Green, l'un des 2 témoins. Ceux-ci affirment par ailleurs avoir entrevu des silhouettes de 2 personnes à bord. 1909-07-30 23:00 Près de Goshen, un aéronef portant une lumière est observé volant rapidement vers l ""See Airships At Night"", New York Times, 1er août 1909.","",1909-07
https://rr0.org/time/1/9/0/9/07/index.html,,1909-07,"1909-07-31 19:00 puis 21:00 Dans le sud d'Alexandria (Nouvelle-Zélande), observation d'une lumière non-identifiée se dirigeant lentement vers l'ouest, puis disparaissant soudainement au bout de P2M ""Again Seen at Alexandria"", Witness de Otago (Nouvelle-Zélande), 2 août 1909. 1909-07-31 23:30 À Gore (Southland, Nouvelle-Zélande), un couple observe de chez eux une lumière semblant régulièrement masquée par des hélices pendant 30 mn avant de sembler plonger vers le sol ""Gore Evidence"", Witness de Otago (Nouvelle-Zélande), 2 août 1909.","",1909-07