url,place,dateTime,description,sources,id
https://rr0.org/time/1/9/8/3/04/index.html,,1983-04,1er vol de la navette Challenger.,"",1983-04
https://rr0.org/time/1/9/8/3/04/index.html,,1983-04,"A Aunay-sur-Odon, Basse Normandie, 2 automobilistes voient dans le ciel à ce qu'ils pensent être une très haute altitude 1 boule très lumineuse. Celle-ci de la grosseur d'une balle de hand-ball est de couleur jaune verdâtre avec une luminosité variable. Observée aux jumelles, cette boule semble avoir des déplacements verticaux rapides, mais ne s'éloigne jamais de plus de 40 à 50 cm de l'emplacement initial où elle revient toujours. La luminosité devenant insoutenable, les témoins arrêtent leur observation L'examen de la carte du ciel le jour de l'observation permet d'identifier Vénus assez bas sur l'horizon (moins de 5 °) dans la direction 300° qui correspond à l'angle de l'observation. Selon le GEPAN, les témoins ont donc probablement été impressionnés par une luminosité importante de la planète Vénus GEPAN: PAN classé B.","",1983-04
https://rr0.org/time/1/9/8/3/04/index.html,,1983-04,"4 militants de Greenpeace franchissent les limites Sud de la Zone 51 lors d'une expédition de 5 jours pour s'introduire sur le Site d'Essais du Nevada Peebles, Curtis: Dark Eagles, Presido Press, 1995.","",1983-04
https://rr0.org/time/1/9/8/3/04/index.html,,1983-04,"A Buzancy, Champagne-Ardennes, 1 agriculteur aperçoit à travers la fenêtre d'une écurie une lueur rouge vif. Cette luminosité vient d'une boule dans le ciel. 1 autre personne fera la même constatation : cette boule passe du rouge au jaune et se déplace en oscillant. Les témoins observeront ce phénomène 1 h durant ; aucun bruit n'est entendu. Cette boule disparaîtra 3 fois pour enfin diminuer et devenir juste un point qui disparaît subitement et définitivement GEPAN: PAN classé D.","",1983-04
https://rr0.org/time/1/9/8/3/04/index.html,,1983-04,"A Lapoutroie, Alsace, 2 témoins voient dans le ciel 1 objet lumineux de la grosseur d'une balle de tennis. Lors de l'observation à l'œil nu, l'objet semble légèrement ovoïde, statique avec parfois de légères oscillations. Il est entouré d'un halo de lumière blanche. L'objet descend par paliers par 3 fois, ce qui entraine un changement de couleur. 1 des personnes munie d'une paire de jumelles observe une sphère plus haute que large avec des veinures très brillantes sur l'objet. Celui-ci disparaîtra dans le paysage lors de sa descente par paliers GEPAN: PAN classé D.","",1983-04
https://rr0.org/time/1/9/8/3/04/index.html,,1983-04,"entre 08:15 et 08:45 À La Verpillière (Isère) plusieurs témoins voient dans le ciel un phénomène de forme ovale. La couleur est claire presque transparente et parfois métallique voir argentée. Ce phénomène évolue à très faible vitesse d'ouest en sud sud-ouest. Plusieurs fois il sera masqué par des nuages dans lesquels il finira par disparaître Les descriptions des témoins incitent à penser qu'il s'agit probablement d'un ballon, type ballon sonde météorologique GEPAN: PAN classé B.","",1983-04
https://rr0.org/time/1/9/8/3/04/index.html,,1983-04,"A Nay-Bournettes (Pyrénées Atlantiques), 2 automobilistes voient très haut dans le ciel 1 phénomène lumineux de forme carré et de couleur orange vif. Quelques km plus loin ils observeront une masse sombre qui semble les suivre à environ 40 km/h et qui se situe juste au-dessus des toits des maisons. Durant le trajet cet objet va disparaître et réapparaître plusieurs fois et lors de la dernière observation il sera de forme ronde et de couleur rouge vif et éclairé d'une lueur plus claire GEPAN: PAN classé D.","",1983-04