url,place,dateTime,description,sources,id
https://rr0.org/time/1/9/5/4/01/index.html,,1954-01,"À l'aéroport de Marignane (France), un pompier voit un objet rond et lumineux descendre lentement. Il appelle la tour de contrôle pour faire son rapport. Quand il ressort de sa tour, l'objet s'est envolé Guieu, Jimmy Vallée, Jacques: cas n° 1, ""Rapport sur l'analyse de 200 observations documentées faites en 1954"".","",1954-01
https://rr0.org/time/1/9/5/4/01/index.html,,1954-01,Observation à Arras (France).,"",1954-01
https://rr0.org/time/1/9/5/4/01/index.html,,1954-01,Observation à Lunéville (France).,"",1954-01
https://rr0.org/time/1/9/5/4/01/index.html,,1954-01,Observation à Constantine (Algérie).,"",1954-01
https://rr0.org/time/1/9/5/4/01/index.html,,1954-01,Observation à Sétif (Algérie).,"",1954-01
https://rr0.org/time/1/9/5/4/01/index.html,,1954-01,Observation à Ouled Djellal (Algérie).,"",1954-01
https://rr0.org/time/1/9/5/4/01/index.html,,1954-01,"A Rangeley (Maine), Wilhelm Reich observe durant P15M 2 lumières brillantes se déplacer dans la vallée, devant la montagne Cas Blue Book non résolu.","",1954-01