url,place,dateTime,description,sources,id
https://rr0.org/time/1/9/1/9/index.html,,1919,"20T10:45 A Zeitoun (Egypte), R. Ascar observe durant 45 s la lente progression d'une lumière orange BSAF, 1919.","",1919
https://rr0.org/time/1/9/1/9/index.html,,1919,"Les douaniers de la frontière mexicaine avec les USA suspectent que certaines observations nocturnes inexpliquées ont pour origine une contrebande organisée ""Smuggling By Air"", The Citizen de Iowa City (Iowa), 3 avril 1919.","",1919
https://rr0.org/time/1/9/1/9/index.html,,1919,"Francisco Marto, l'un des 3 petits bergers témoins de l'observation à Fatima en 1917, meurt de la grippe espagnole.","",1919