url,place,dateTime,description,sources,id
https://rr0.org/time/1/6/6/5/index.html,,1665,"1665-03-23 Près de Laucha, non loin de Nuremberg (Allemagne), tombe de grandes quantités d'une substance fibreuse, comme de la soie bleue Joh. Praetorius < Annals of Philosophy, New Series 12:93, juillet à décembre 1826 < UFO Report, 12.77.","",1665
https://rr0.org/time/1/6/6/5/index.html,,1665,"1665-04-08 ~14:00 Dessins et texte retraçant l'observation du 8 Lorsque les pêcheurs ancrés près de Barhöfft anciennement en Suède aujourd'hui Stralsund en Allemagne ont rapporté avoir vu des navires dans le ciel s’engager dans un combat aérien... Après la bataille, un objet sombre a continué de planer dans le ciel. Ensuite, un objet rond et plat est apparu. Il ressemblait à un grand chapeau d’homme... Sa couleur était celle de la lune, puis il a plané juste au-dessus de l'église Saint Nicolai. Il est resté immobile jusqu'au soir. Les pêcheurs, inquiets, se sont pris leurs visages dans les mains. Les jours suivants, ils sont tombés malades, avec des douleurs à la tête et aux membres. Beaucoup de savants de l’époque se sont penchés sur la question des ovnis, Francisci, Erasmus: ""Der Wunder-reiche Ueberzug unserer Nider-Welt / Oder Erd-umgebende"", 1689 < Aubeck, Chris & Shough, Martin: EdgeScience, 2015-06 < Theepochtimes En Angleterre, observation d'une comète The Age of Wonders: or farther and particular Discriptton[sic] of the remarkable, and Fiery Appartion[sic] that was seen in the Air, on Thursday in the Morning, being May the 11th 1710. also the Figure of a Man in the Clouds with a drawn Sword; which pass'd from the North West over toward France, with reasonable Signification thereon; and the Names of several Inhabitants in and about the City of London, that saw the same, and are ready to Attest it. Also an Account of several Comets that have appear'd formerly in England, and what has happen'd in those Years. London, printed by J. Read, near Fleet-Street, [1710? ], pp. 4-8. [British Library, 1104.a.24] < Deliyannis, Y.: ""1710, May 11th : London (was [magonia_exchange] 1710, May 18th : Leeds and others.)"", Magonia Exchange, 14 juillet 2008.","",1665
https://rr0.org/time/1/6/6/5/index.html,,1665,"1665-03-06 A Orange (Vaucluse), alors qu'on publie amnistie générale à la place du cirque, M. de Zuilychem séant à la tête du Parlement, se forme en l'air 1 couronne qui se posa justement sur le trône qui a été dressé pour le Prince, ce qui est vu de toute l'assemblée composée de plus de 8000 membres Les larmes de Jacques Pineton de Chambrun, pasteur de la maison de son Altesse sérénissime d'Orange et professeur en Théologie, qui contiennent les Persécutions arrivées aux Eglises de la Principauté d'Orange depuis l'an 1660, réimpression d'après l'édition originale, Paris, Charpentier, 1854, p. 29 < Deliyannis, Yannis: Magonia Exchange, 22 avril 2007.","",1665