url,place,dateTime,description,sources,id
https://rr0.org/time/1/9/4/8/01/index.html,,1948-01,"A Glendale (Illinois), James Trares (12 ans), crie à sa mère, tout excité : Il y a un oiseau dehors, comme un B-29 ! Keel, John Alva: 1975.","",1948-01
https://rr0.org/time/1/9/4/8/01/index.html,,1948-01,"A Chehalis (Washington), Mme Bernard Zaikowski voit un homme avec des ailes argentées bruissant et sifflant à presque 100 m au-dessus de sa grange ""Flying Saucer Story a Fizzle; Now It's A Man"", Press de Sheboygan (Wisconsin), 1948-1-21.","",1948-01
https://rr0.org/time/1/9/4/8/01/index.html,,1948-01,"14:45 Rencontre fatale pour Thomas Mantell. 17:00 A Lockbourne (Colombus), un objet rond ou ovale, plus gros qu'un C-47, volant horizontalement à plus de 800 km/h est suivi par la tour de contrôle pendant 20 mn. Il est silencieux, change de couleur, possède une traînée de 5 fois sa longueur, et vole parfois comme un ascenseur en descendant jusqu'à terre. Il est perdu de vue sur l'horizon GEPAN, Note d'information n° 3, 1981.","",1948-01
https://rr0.org/time/1/9/4/8/01/index.html,,1948-01,Lancement effectif du projet Sign.,"",1948-01