url,place,dateTime,description,sources,id
https://rr0.org/time/1/9/5/1/12/index.html,,1951-12,"On observe dans le ciel un météore de 60 m d'envergure qui se déplace horizontalement avec une queue brûlant furieusement, au-dessus de l'Atlantique.","",1951-12
https://rr0.org/time/1/9/5/1/12/index.html,,1951-12,"A Peru (Nebraska), 1 homme en provenance de Lincoln roule vers l'Indiana, quand il voit une lumière bleue dans le ciel au nord-est, qui s'évanouit en direction du sud-est. Le témoin manque une bifurcation, doit retourner vers Auburn, et en atteignant un point situé au nord-ouest de la ville de Peru, il voit une lueur orange dans le ciel. En s'approchant, il observe qu'elle émane d'un objet posé au sol, de la forme d'un chaudron à environ 12 m de la route. Il s'arrête pour examiner l'objet, qui mesurait environ 10 m de diamètre,ê'apparence de la fonte. À 30 cm du sommet, il y a une rangée d'ouvertures de 25 cm de diamètre desquelles sort la lumière orange. De l'autre côté, il y a une lueur bleue, comme une flamme. Pas de bruit, pas de signe de vie ou d'activité, pas d'antenne ni de protubérance. Le témoin poursuit sa route ATIC.","",1951-12
https://rr0.org/time/1/9/5/1/12/index.html,,1951-12,"À Red Springs (Caroline du Nord), Sam Coley et ses 2 enfants voient 1 objet avec 1 occupant ressemblant à 1 être humain Bowen, Charles: Humanoids 52.","",1951-12
https://rr0.org/time/1/9/5/1/12/index.html,,1951-12,"1951-12-07 08:15 À Oak Ridge (Tennessee), J. H. Collins (garde de l'AEC) observe un objet carré de 20 pieds, blanc-gris, mais non luisant, voler au-dessus des montagnes vers les nuages et revenir ainsi par 2 fois, la manœuvre durant 30 à 40 s à chaque fois Cas Blue Book n° 1021 non expliqué. 1951-12-07 16:30 A Sunbury (Ohio), Carl Loar (astronome amateur) observe durant 30 mn une sphère argentée avec son télescope. 2 tâches sur les côtés, l'objet semble exploser et est remplacé par un nuage sombre et de nombreuses tâches Cas Blue Book n° 1023 non expliqué.","",1951-12
https://rr0.org/time/1/9/5/1/12/index.html,,1951-12,Le docteur Lincoln LaPaz déclare que le projet Twinkle est un échec et y met un terme.,"",1951-12