url,place,dateTime,description,sources,id
https://rr0.org/time/1/9/9/0/05/index.html,,1990-05,"A Thiant (Nord), un couple de jeunes gens circulent à bord de leur véhicule. L'homme constate la présence dans le ciel de 1 point rouge stationnaire. Il s'arrête pour l'observer pendant P10M environ durant lesquelles le point reste stationnaire. Le point se déplace alors très rapidement latéralement pour s'arrêter à nouveau. Au bout de P2M environ, le point s'approche des témoins qui constatent alors 3 feux blancs en forme de triangle isocèle, le point rouge se tenant au centre. L'ensemble du phénomène survole la voiture et part à grande vitesse. Aucun bruit n'a été perçu durant toute l'observation. Malgré les articles parus dans la presse aucun autre témoin n'a pu être trouvé et le phénomène n'a pu être expliqué GEPAN: Cas de type D.","",1990-05
https://rr0.org/time/1/9/9/0/05/index.html,,1990-05,"A Checy (Loiret), 3 membres d'une même famille observent le passage silencieux et à la vitesse d'un avion de tourisme de 1 forme hémisphérique de couleur grise et polie. Le dessin de l'objet par les 3 témoins est cohérent et fait apparaitre des ""pieds"" ou des ""tentacules"" SEPRA: PAN classé D.","",1990-05
https://rr0.org/time/1/9/9/0/05/index.html,,1990-05,"Au Chatelet-en-Brie (Seine-et-Marne), 1 femme observe 1 objet triangulaire silencieux avec des phares puissants qui s'immobilise quelques instants avant de repartir très rapidement SEPRA: PAN classé C.","",1990-05
https://rr0.org/time/1/9/9/0/05/index.html,,1990-05,"L'émission spéciale Midi 3 consacrée aux ovnis Sur FR3, émission spéciale Midi 3 consacrée aux ovnis : l'animateur Philippe Bachmann y reçoit Jimmy Guieu, Martine Castello, Pierre Vanoudenhove (journaliste) et Claude Maugé. Y est notamment évoqué la trace de Marcilly découverte en 1989-06.","",1990-05
https://rr0.org/time/1/9/9/0/05/index.html,,1990-05,"A Pleine Fougère (Ile-et-Vilaine), 1 agriculteur constate dans une de ses patûres un cercle d'herbes jaunies sur une largeur d'environ 15 à 25 cm. Le cercle fait près de 8 m de diamètre. Ce phénomène est découvert chez 2 propriétaires différents à quelques semaines d'intervalles Une enquête du SEPRA sur les lieux ainsi que des analyses de sol faites par l'école supérieure d'agronomie de Rennes ont montré qu'il s'agissait d'une attaque de champignons qui provoque le phénomène bien connu de ""rond de sorcière"" celui-ci étant de grande dimension SEPRA: Cas de type A.","",1990-05
https://rr0.org/time/1/9/9/0/05/index.html,,1990-05,"Un gigantesque disque, d'un diamètre estimé à environ 300 m, est aperçu en plein jour au-dessus de la ville de Mary, au Sud de la république du Turkménistan, non loin de la frontière iranienne. À ce moment, la zone de Mary est sous le contrôle de la 12ᵉ Armée de Défense Aérienne et le colonel Anatoli Kurkchy assure le commandement de la division locale. Dès l'apparition du disque volant de couleur rouge-orange, au pourtour percé de sortes de hublots, le colonel Krukchy déclenche une riposte armée : 3 missiles sol-air sont tirés, mais l'ovni opère une rapide manœuvre d'évitement et détruit chacun des projectiles à l'aide d'un rayon lumineux. Le militaire décide alors de faire décoller 2 intercepteurs biplaces. A 1 km environ de l'ovni, une force inconnue semble projeter les 2 avions vers le sol. Les appareils sont détruits et leurs pilotes tués. Le colonel Kurkchy aurait été relevé de son commandement et traduit en justice. Mais, curieusement, les poursuites auraient été abandonnées et il aurait été muté en Nouvelle-Zemble (archipel situé en mer Polaire de Barents, au nord-est de Mourmansk) — zone militaire d'expérimentation nucléaire interdite aux civils — pour y prendre le commandement de la division locale de Défense aérienne. Les documents liés à cet incident auraient été classés secrets et l'escadrille dissoute (article de Nicolaï Lebedev de 1991-11 dans un journal de Leningrad). 1990-05-25 23:00 À Ribecourt-Dreslincourt (Picardie), plusieurs témoins sont intrigués par 3 projecteurs jaunes tournoyant dans le ciel. Le phénomène est vu par d'autres témoins sur plusieurs jours L'enquête montrera sans ambiguité qu'il s'agit d'un système de projecteurs d'une discothèque voisine visible à plus de 30 km à la ronde SEPRA: PAN classé A.","",1990-05
https://rr0.org/time/1/9/9/0/05/index.html,,1990-05,"À Montbazon (Indre-et-Lore), 1 témoin et son épouse observent 1 phénomène sombre prolongé d'une flamme orangée se déplaçant rapidement La description faite par les témoins montre qu'il s'agit très vraisemblablement d'une rentrée atmosphérique SEPRA: PAN classé B.","",1990-05
https://rr0.org/time/1/9/9/0/05/index.html,,1990-05,Amarrage du module Kristall à Mir.,"",1990-05