url,place,dateTime,description,sources,id
https://rr0.org/time/1/9/6/8/12/index.html,,1968-12,1ʳᵉ réunion du panel de la NAS pour examiner le rapport Condon.,"",1968-12
https://rr0.org/time/1/9/6/8/12/index.html,,1968-12,Photographie prise le 6 décembre à Sicuani (Pérou),"",1968-12
https://rr0.org/time/1/9/6/8/12/index.html,,1968-12,"Pedro Chavez (photographe pour La Prensa) en mission à A Sicuani (Pérou), se trouve dans le carré cathédral près de la grande église où il prend une photo (ci-contre) avant que les objets disparaissent.","",1968-12
https://rr0.org/time/1/9/6/8/12/index.html,,1968-12,"1968-12-15 15:00 A Hawk Inlet (Alaska), 2 marins du cargo Teel aperçoivent une lumière blanche et ronde qui se dirige vers eux. 1968-12-15 19:00 L'objet, qui semblait jusqu'alors flotter sur l'eau, décolle soudain et disparait derrière une crête de la côte. 1968-12-15 23:20 ou 23:30 A ""Vieille écluse"", alors qu'il roule sur la D148 vers Episy, Alain Thouard (19 ans) observe une boule lumineuse de la grosseur d'une voiture, émettant une lueur bleutée, posée dans un champ. Lui et sa femme signaleront de nombreux parasites inhabituels paralysant leur réception TV pendant 1 bonne mn, quelques instants avant l'arrivée de leur fils. La gendarmerie de Morêt-sur-Loing fait une enquête LDLN n° 98 bis, pp. 5-6 < Figuet, M. & Ruchon, J. L.: OVNI : le premier dossier complet des rencontres rapprochées en FRANCE, Alain Lefeuvre, 1979, pp. 321-322.","",1968-12
https://rr0.org/time/1/9/6/8/12/index.html,,1968-12,"A Hawk Inlet, Une lueur identique à celle de la veille réapparaît dans la soirée. Elle se déplace à vers le cargo et s'arrête à environ 20 m au-dessus du navire, sans émettre aucun son. L'équipage contacte immédiatement la base aérienne d'Elmendorf, ainsi que les garde-côtes. Dans les minutes qui suivent, le courant est coupé et la radio tombe en panne. Le générateur diesel de secours n'arrive pas à se mettre en marche. Quand l'objet s'éloigne, il se met à fonctionner normalement. L'objet restera encore visible 15 mn.","",1968-12
https://rr0.org/time/1/9/6/8/12/index.html,,1968-12,"Josef Allen Hynek déclare au Saturday Evening Post que le programme Blue Book a examiné 10 147 cas, la commission Condon en a identifié 9501, en laissant 646 non-identifiés.","",1968-12
https://rr0.org/time/1/9/6/8/12/index.html,,1968-12,Le vol habité américain Apollo 8 est placé en orbite lunaire.,"",1968-12
https://rr0.org/time/1/9/6/8/12/index.html,,1968-12,"Alors que Apollo 8 gravite en orbite autour de la surface lunaire à une distance de 112 km, la capsule reste totalement muette durant 6 mn, et ce malgré les appels répétés de la base de Houston. Puis on entend soudain la voix de James Lovell annoncer : On vient de nous informer que le Père Noël existe bien ! L'homme venait de subir une violente surprise, comme l'indiquèrent les contrôles télémétriques. Son pouls avait atteint 120 pulsations minute, tandis que durant les 93 h précédentes, son rythme cardiaque avait été parfaitement normal. Coincidence troublante, ce silence, dont Apollo 8 venait de faire preuve inexplicablement, peut être expliqué par la présence d'un champ magnétique extérieur à la cabine, perturbant les liaisons radio avec le sol.","",1968-12
https://rr0.org/time/1/9/6/8/12/index.html,,1968-12,Retour sur Terre de Apollo 8.,"",1968-12