url,place,dateTime,description,sources,id
https://rr0.org/time/1/9/5/4/10/01/index.html,,1954-10-01,"A Dhubri (Inde), une femme signale à la police avoir vu une assiette lumineuse laissant derrière elle une longue traînée ; elle atterrit dans un champ, puis s'éloigne de nouveau P. 29, Vallée, J., Challenge 132 Vallée, J., cas n° 31, ""Rapport sur l'analyse de 200 observations documentées faites en 1954"".","",1954-10-01
https://rr0.org/time/1/9/5/4/10/01/index.html,,1954-10-01,"A Blanzy (France), 2 maçons, MM. Sébastiani et Buratto, 2 briquetiers, s'approchent d'un objet en forme de cigare, 3 m de long et 80 cm de large, qui s'élève du sol avec un doux siflement. La partie pointue de l'objet est jaune, le reste marron. De l'avant s'étendent 2 appendices qui touchent le sol Le Figaro, Le Parisien, 2 octobre 1954 La Croix, France-Soir, Paris-Presse, 3 octobre 1954 Vallée, J., cas n° 32, ""Rapport sur l'analyse de 200 observations documentées faites en 1954"".","",1954-10-01
https://rr0.org/time/1/9/5/4/10/01/index.html,,1954-10-01,"A Bry (France, à 10 km de Quarouble), 1 homme et son chien sont paralysés tandis qu'un objet blanc lumineux plonge du ciel devant eux, puis s'élève à nouveau avec la même vitesse Vallée, J., cas n° 33, ""Rapport sur l'analyse de 200 observations documentées faites en 1954"".","",1954-10-01
https://rr0.org/time/1/9/5/4/10/01/index.html,,1954-10-01,"Près de Ressons-sur Matz (Oise), 1 fermier voit dans un champ un appareil blanc. On trouvera de l'herbe aplatie à l'endroit du phénomène Vallée, J., cas n° 34, ""Rapport sur l'analyse de 200 observations documentées faites en 1954"".","",1954-10-01
https://rr0.org/time/1/9/5/4/10/01/index.html,,1954-10-01,"A Jussey (France), 2 jeunes gens voient un disque blanc lumineux se déplacer dans le ciel. Il plonge au sol et 2 hommes, très grands et vêtus de blanc, en sortent, font des gestes. Les témoins, pris de panique, s'enfuient Vallée, J., cas n° 35, ""Rapport sur l'analyse de 200 observations documentées faites en 1954"".","",1954-10-01
https://rr0.org/time/1/9/5/4/10/01/index.html,,1954-10-01,"Au voisinage de ""La Roulerie"" (France), près de Saint-Jean-Angély, MM. Estier et Phelippeau, 2 hommes d'affaires revenant de Royan, voient 1 petit personnage traverser la route devant leur voiture. S'étant arrêtés aussitôt, ils voient la silhouette disparaître dans les bois Sud-Ouest, environ 2 octobre 1954 Vallée, J., cas n° 36, ""Rapport sur l'analyse de 200 observations documentées faites en 1954"".","",1954-10-01
https://rr0.org/time/1/9/5/4/10/01/index.html,,1954-10-01,"A Branges, près de Louhans (France), Gilbert Prudent rentre chez lui quand il voit 1 objet brillant sur le bord de la route. Il a une partie plate et une sorte de ""champignon"" au sommet. Alors que le témoin approche, l'objet devient sombre et s'élève verticalement avec un faible sifflement Vallée, J., cas n° 37, ""Rapport sur l'analyse de 200 observations documentées faites en 1954"". A Bergerac (France), Jean Dufix (26 ans, pompier) rentre chez lui quand il voit 1 lumière ovale dans le ciel qu'il prend pour une étoile filante et perd la vue. Plus tard, il a un instant d'effroi : la cour de sa maison semble embrasée. Il se précipite dehors et voit 1 disque s'élevant du sol avec un sifflement. L'objet s'envole jusqu'à une hauteur modérée, puis redevient lumineux et part à une vitesse étourdissante. Tôt le lendemain, il demandera à son voisin Jean Labonne, 61 ans, retraité s'il n'a pas fait une observation inhabituelle. Ce dernier, avec réticence, reconnait qu'alors qu'il refermait la porte de son jardin, il s'est soudain trouvé paralysé et a vu un disque d'environ 3 m de diamètre, posé sur 3 pieds dans la cour. Presque immédiatement, il s'est envolé avec un courant d'air et il l'a perdu de vue Le Figaro, 6 octobre 1954 France-Soir, 7 et 8 octobre 1954 Vallée, J., cas n° 38, ""Rapport sur l'analyse de 200 observations documentées faites en 1954"".","",1954-10-01