url,place,dateTime,description,sources,id
https://rr0.org/time/1/9/7/8/03/index.html,,1978-03,Début d'une vague d'observation de longs objets cylindriques au-dessus du lac Michigan.,"",1978-03
https://rr0.org/time/1/9/7/8/03/index.html,,1978-03,"À Chambéry, rencontres ufologiques européennes Réunion des 4 et 5 Mars 1978 à Chambéry.","",1978-03
https://rr0.org/time/1/9/7/8/03/index.html,,1978-03,"1978-03-17 01:30 À Arras (Pas-de-Calais), un témoin observe pendant P10M un phénomène rond se déplacer sans bruit perceptible du sud au nord-ouest, descendant lentement sur l'horizon GEPAN : PAN classé C. 1978-03-17 23:30 Ken Edward (39 ans, ingénieur de service) rentre d'une réunion syndicale à Sale (Greater Manchester, Angleterre) jusqu'à chez lui à Fearnhead. A Risley, il croise un homme argenté qui se révèlera être une farce de pompier Vaudrey, Glen: ""Atom Age Alien"", Fortean Times, pp. 36-41 Une personne prétendant être en communication télépathique avec les extraterrestres déclare dans une lettre à l'ufologue Nigel Watson avoir eu un fort pressentiment au sujet d'un accident dans une grande compagnie chimique ou de carburant Cela n'arrivera pas Watson, Nigel: ""A Stranger in the City"" MUFOB n°14, printemps 1979, p. 8 Watson, Nigel: Portraits of Alien Encounters Valis, 1990, pp. 99-119, 155-64 < Kottmeyer, Martin S.: ""Still Waiting: A List of Predictions from the 'UFO Culture'"", The Anomalist, 1998.","",1978-03
https://rr0.org/time/1/9/7/8/03/index.html,,1978-03,"1978-03-24 ~22:00 A Agen (Lot-et-Garonne, Aquitaine), 1 témoin observe depuis son habitation une éblouissante lumière rouge écarlate. Elle aperçoit alors 1 objet de forme rectangulaire baigné dans cette lumière. A l'intérieur de l'objet le témoin distingue 2 cercles jaunes pouvant être des hublots. Cet objet se déplace horizontalement puis disparaît brutalement laissant une légère lueur rose à l'arrière GEPAN: PAN classé C.","",1978-03
https://rr0.org/time/1/9/7/8/03/index.html,,1978-03,"1978-03-25 21:15 A Ste Afrique (Aveyron, Midi Pyrénées), 1 témoin observe la chute d'une boule de feu orangée suivie d'une très longue queue se déplaçant de l'ouest vers le nord dans une trajectoire descendante. L'observation a duré 8 s Selon le GEPAN cette personne a probablement été témoin d'une rentrée atmosphérique GEPAN: PAN classé B. 1978-03-25 00:30 Y. S. (23 ans), domicilié chez ses parents au bourg de Saint-Armel (Ile-et-Vilaine) voit, sur le chemin communal n° 202, entre le bourg de Saint-Armel et le lieux-dit ""les Apprix"", un énorme disque de couleur orange à quelques m du sol et qui occasionne l'arrêt de son véhicule automobile. Le disque disparaît et le véhicule redémarre au bout de quelques secondes Bourret, Jean-Claude: L'armée parle, 1979 Watson, Nigel: ""A Stranger in the City"" MUFOB n°14, printemps 1979, p. 8 Watson, Nigel: Portraits of Alien Encounters Valis, 1990, pp. 99-119, 155-64. 1978-03-25 23:30 Y. S. et sa fiancée C. R. (18 ans), voient au même endroit que la veille des faisceaux lumineux qui partent de différents endroits et qui sont dirigés vers leur véhicule Bourret, J.-C.: L'armée parle, 1979.","",1978-03
https://rr0.org/time/1/9/7/8/03/index.html,,1978-03,"1978-03-26 13:30 C. S., secrétaire de mairie à Saint-Armel (Saint-Erblon), prévient par téléphone la compagnie Vitré de gendarmerie d'Ile-et-Vilaine de l'observation de son beau-frère le 25 Mars. Les gendarmes demandent à Mme S. d'inviter Y. S. et sa fiancée à témoigner auprès de la gendarmerie locale Bourret, J.-C.: L'armée parle, 1979. 1978-03-26 14:15 Y. S. et sa fiancée se présentent à la gendarmerie locale Bourret, J.-C.: L'armée parle, 1979.","",1978-03
https://rr0.org/time/1/9/7/8/03/index.html,,1978-03,"Près d'Indianapolis (Indiana), 3 routiers qui roulent en formant un convoi bavardent sur leur CB lorsqu'une vive lumière bleue enveloppe les 3 camions durant environ 5 s. Aucun des 3 hommes ne peut voir au-delà du capot de son camion. Tous les bruits extérieurs cessent. Les CB arrêtent de fonctionner et les moteurs des camions commençent à défaillir. Puis, la lumière bleue — décrite par le conducteur d'un voiture proche comme une sorte de brillant abat-jour bleu au-dessus des 3 camions — disparaît et tout revient brusquement à la normalité. Le dernier routier de la file hurle dans sa CB : Hey, l'ovni, si tu m'entends, je veux partir avec toi ! La lumière bleue revient, durant environ 15 s, et cause les mêmes effets que précédemment ; la vitesse des camions descend à une allure de 8 km/h. Lorsque la lumière disparaît à nouveau, tout redevient normal.","",1978-03