url,place,dateTime,description,sources,id
https://rr0.org/time/1/9/8/4/07/index.html,,1984-07,"1ʳᵉ sortie d'une femme dans l'espace, la cosmonaute Svetlana Savitskaya.","",1984-07
https://rr0.org/time/1/9/8/4/07/index.html,,1984-07,"Le commandant Jean-Gabriel Greslé pilote un Boeing 747 à 11 500 m au-dessus de Détroit, reliant Los Angeles et Montréal. Il observe une traînée lumineuse créée par 3 boules d'aspect métallique, luisantes comme de l'acier poli mais sans luminosité propre. Sur la même fréquence que la tour de contrôle de Détroit, 2 autres équipages, l'un de la Lufthansa, l'autre de Olympic Airways, assistent au même phénomène et préviennent les techniciens au sol. Il a été estimé que les 3 objets sphériques étaient à 10 km du Boeing 747, volaient à 3300 km/h (contre 900 km/h pour l'avion) et avaient un diamètre de 40 à 50 m environ.","",1984-07
https://rr0.org/time/1/9/8/4/07/index.html,,1984-07,"A Tournus (Saône-et-Loire), plusieurs témoins voient dans le ciel des objets brillants comme des étoiles. Ces objets émettent des clignotements de lumières rouges et vertes. Les observations se font la nuit après une journée de forte chaleur et par ciel dégagé. Au fur et à mesure de toutes ces nuits d'observation, les objets ont une position qui varie sensiblement. La carte du ciel montre que la région du ciel observée est la constellation de Persée qui à cette époque de l'année est le siège de nombreux phénomènes lumineux connus sous le nom de Perseides. Les témoins ont probablement observé ce type de phénomène GEPAN: PAN classé B.","",1984-07