url,place,dateTime,description,sources,id
https://rr0.org/time/1/8/9/0/index.html,,1890,"""Ball Of Fire At Sea / It Lights Upon the Deck of a Steamship in Mid-Ocean"", Courant de Hartford, 18/20 février 1890, p. 1.","",1890
https://rr0.org/time/1/8/9/0/index.html,,1890,"15 la nuit Au-dessus d'Atlanta (Georgie), observation d'une lumière étrange qui semble être un ballon jouet transportant une chandelle ""A Strange Light"", The Atlanta Constitution (USA), 16 juin 1890 < Guenther, D:. Magonia Exchange; RD B, Magonia Exchange, 2007-05-24.","",1890
https://rr0.org/time/1/8/9/0/index.html,,1890,"Une substance comestible consistant en de petites sphérules jaunes, blanches à l'intérieur, tombe sur une zone de quelques 3 miles2 au voisinage de Mardin et Diyarbakir (Turquie). Les gens du coin l'utilisent pour faire du pain et disent qu'elle est facilement digérée. Des botanistes declarent que la substance pourrait être un lichen, peut-être lecanora esculenta Nature, 43: 255, 1891-01-15.","",1890
https://rr0.org/time/1/8/9/0/index.html,,1890,"24T23:00 Non loin de la petite ville de South Bend (Indiana), Tom Lerch Ou Larch, selon la version, sa famille et ses amis du voisinage se trouvent réunis dans la grande cuisine de la ferme pour la veillée du réveillon. Mme Lerch demande à son fils Oliver, âgé de 11 ans, d'aller au puits chercher de l'eau, et lui tend un seau vide. Oliver sort un cache-nez, car il gèle dehors. Moins de 10 s plus tard, après qu'il eut refermé la porte derrière lui, Oliver hurle au-dehors, appela au secours, figeant toute l'assistance. Chacun pense immédiatement qu'un loup a surgi. Une fois dehors, il n'y a pas plus de loup que de petit garçon. Ils sont tous glacés d'horreur lorsqu'ils entendent les hurlements desespérés du petit Oliver, quelque part dans la nuit, mais au-dessus de leurs têtes. L'enfant est invisible, dans ce ciel noir. Oliver hurle Au secours ! Ils me tiennent ! Au secours ! Les cris et les appels continuent à déchirer l'air pendant près de 1 mn, mais en diminuant d'intensité, comme si l'enfant montait, montait... Médusée, l'assistance ne réagit que lorsque le pasteur décide de suivre les traces du petit. Dans la neige fraîche, les traces sont normales et montrent que l'enfant s'était dirigé vers le puits. Mais, à environ 20 m de la maison et 10 m du puits, les traces cessaient brusquement, comme si l'enfant avait été soulevé de terre. On retrouva le seau 2 m plus loin. L'enquête n'aboutit à rien Jessup, M. K.: The Case for the UFO, 1955. Edwards, Frank: Strangest of All (1956). Fate, 1950. Une autre version de l'histoire, dont il semble qu'elle est apparue dans les années 1960s, met en scène un certain Oliver Thomas, âgé de 11 ans, vivant à Rhayader, dans le Wales, un personnage dont on a retrouvé aucune trace. On pense que l'histoire vient d'une des premières histoires de science-fiction, ""Chales Ashmore's Trail"", publiée dans une collection de 1893 de Ambrose Bierce, Can Such Things Be? Le personnage principal est Charles Ashmore et non Oliver Lerch cependant, mais l'histoire est la même..","",1890
https://rr0.org/time/1/8/9/0/index.html,,1890,"A Battleford (Saskatchewan), le professeur Bradley voit un puissant disque argenté, fusant en haut et en bas et de cette manière, lâchant de petits disques argentés et certains rouges National Archives of Canada Records RG 97, Vol. 193 (la lettre est datée de 1954) cité du livre, The UFO files: the Canadian Connection Exposed de Palmiro Campaga. Stoddart Toronto, 1997. ISBN 077373015x, p. 4. Le livre indique aussi que le professeur Bradley construisant des maquettes d'objets en forme de disque dans les années 1890s, comme un enfant également en p. 4. Des occupants de l'appareil sont mentionnés, et correspondant à la description d'humanoïdes UFOs And The Unexplained In Saskatchewan, compilé par Rick Fowler, de Bill Oliver.","",1890