url,place,dateTime,description,sources,id
https://rr0.org/time/1/8/9/8/index.html,,1898,"15 23:00/24:00 A Fort William (Ontario), alors qu'il se rend à son travail, un opérateur de chemins de fer voit un étrange phénomène lumineux s'approcher puis disparaître lentement ""Strange Object Seen In the Sky At Fort William"", Journal de Ottawa (Ontario), 17 janvier 1898. 21:00 Près de Salina (Kansas), une tempête de neige se met à faire tomber des blocs et boules énormes de neige ""Large Balls of Snow"", Daily Advocate de Newark (Ohio), 28 janvier 1898.","",1898
https://rr0.org/time/1/8/9/8/index.html,,1898,"02 au crépuscule A New Castle (Pennsylvanie), une foule de gens observe une mystérieuse lumière particulièrement brillante pendant un bon moment ""A Mysterious Light"", News de New Castle (Pennsylvanie), 4 mai 1898.","",1898
https://rr0.org/time/1/8/9/8/index.html,,1898,"08 A Kiel, un objet rougi par le Soleil, large comme un arc-en-ciel, à une hauteur de 12 °, demeure brillant durant 5 mn, puis s'estompe, demeure presque stationnaire et disparaît au bout de 8 mn Nature, 58-294.","",1898
https://rr0.org/time/1/8/9/8/index.html,,1898,"03 21:00 Depuis Garland et Sherman, au Texas, on observe un corps lumineux descendre et exploser ""Aerial Phenomena in Texas"", Daily News de Galveston (Texas), 6 octobre 1898, p. 6.","",1898
https://rr0.org/time/1/8/9/8/index.html,,1898,"21 ""Le policier volant"" sur l'affiche d'une pièce de théâtre de J. M. Gaites montée sur les airships cette année-là Novak, Matthew: The Air Ship: A Musical Farce Comedy (1898), Paleo-Future, 25 juillet 2007 Des toiles d'araignées flottantes - Un paragraphe dans le Advertiser de Mont gomery, Alabama, indique que le 21 novembre, de nombreux lots d'une substance de toile d'araignées a été vue flottant dans l'air et tombant des arbres et des feuilles au sol. Il y en avait en films de 15 ou 20 pieds de long, mais parfois des masses de quelques pouces de long et 1 pouce ou plus de large ont été observées. L'auteur du paragraphe indique qu'il ne s'agissait pas de toile d'araignée mais que cela ressemblait aux fibres fines d'amiante, et que cela était probablement lié à la chute de météores de novembre. On dit également que cela a montré un effet phosphorescent. Comme plusieurs espèces d'araignées flottent indéfiniment dans les airs au moyen de leurs toiles délicates, le rédacteur ne voit aucune raison de penser que le phénomène mentionné ci-dessus était d'une quelconque autre nature. Il ne semble pas possible que les météores se consumant puisse d'une manière quelconque avoir produit ces toiles délicates U.S.A. War Department Monthly Weather Review, Volume 26.","",1898
https://rr0.org/time/1/8/9/8/index.html#P6M,,1898,"Un professeur Michailovitch de l'Observatoire de Belgrade suit une ""comète"" restant immobile dans le ciel durant Vallée, Jacques: 1965, p. 35.","",1898
https://rr0.org/time/1/8/9/8/index.html,,1898,"Publication de La Guerre des Mondes, de H. G. Wells.","",1898