url,place,dateTime,description,sources,id
https://rr0.org/time/1/9/8/7/12/index.html,,1987-12,Ed Walters rencontre un être dans son arrière-cour et le fait déguerpir.,"",1987-12
https://rr0.org/time/1/9/8/7/12/index.html,,1987-12,"A Narbonne (Aude), 1 témoin rencontre près d'une ruine un groupe de 6 personnes étranges avec lesquels il échange quelques mots. Ces êtres mesurent entre 1 m et 1,50 m, et l'un d'entre eux dessine au sol 2 signes. Ils partent sur des engins sans moteur et sans roues ressemblant à des traîneaux Le témoin fera une déposition à la gendarmerie le 28 après qu'un article sur le sujet soit paru dans la presse locale le 20 GEPAN: PAN classé D.","",1987-12
https://rr0.org/time/1/9/8/7/12/index.html,,1987-12,"Le Congrès américain finit par autoriser officiellement la saisie arbitraire et jusqu'ici illégale des terres autour de Groom Lake par l'USAF Peter Merlin, Dreamland - the Air Force's Remote Test Site, article pour Aerotech News and Review du 1er 1994-04.","",1987-12