url,place,dateTime,description,sources,id
https://rr0.org/time/1/6/index.html,,undefined,la méthode expérimentale de Francis Bacon,"",undefined
https://rr0.org/time/1/6/index.html,,undefined,les observations instrumentées de Galilée,"",undefined
https://rr0.org/time/1/6/index.html,,undefined,l'ardoise vierge de John Locke avant l'expérience du monde,"",undefined
https://rr0.org/time/1/6/index.html,,undefined,l'adhésion de Isaac Newton,"",undefined
https://rr0.org/time/1/6/index.html,,undefined,Mill,"",undefined
https://rr0.org/time/1/6/index.html,,undefined,le scepticisme de David Hume,"",undefined