url,place,dateTime,description,sources,id
https://rr0.org/time/1/9/9/5/01/index.html,,1995-01,"Film de Guillermo Osorio le 28 A l'aéroport de Manchester (Angleterre), quasi-collision avec 1 objet lumineux.","",1995-01
https://rr0.org/time/1/9/9/5/01/index.html,,1995-01,"Sur TF1, numéro de J'y Crois, j'y crois pas consacré aux ""ovnis et extraterrestres"".","",1995-01
https://rr0.org/time/1/9/9/5/01/index.html,,1995-01,"A Guenange (Moselle), 1 témoin observe depuis chez lui 1 grand phénomène lumineux semblant sortir du bois. Ce phénomène a éclairé le bois. Aucun bruit n'a été perçu, l'observation a duré 2 à 3 mn SEPRA: PAN classé C.","",1995-01
https://rr0.org/time/1/9/9/5/01/index.html,,1995-01,"A Tepeji del Rio (Puebla?, Mexique), Guillermo Osorio filme des bandes de lumière passant en silence au-dessus de la ville, sous les yeux de nombreux témoins. De prime abord, des astronomes pensent qu'ils s'agit de comètes, mais reviennent sur leur jugement en constatant que ces objets se déplacent très lentement et à très basse altitude. L'analyse informatique effectuée aux USA indique qu'il ne peut s'agir d'un phénomène naturel. En fait une rentrée atmosphérique probable.","",1995-01