url,place,dateTime,description,sources,id
https://rr0.org/time/1/9/9/4/06/index.html,,1994-06,"L'objet photographié le 5 A Kanchanabiri (Thailande), une personne photographie, sans l'avoir observé, un objet étrange suspendu au-dessus du pont de la rivière Kwai. Après enquête, les autorités militaires affirment n'avoir pu identifier l'objet qui, selon elles, n'était pas un ballon publicitaire.","",1994-06
https://rr0.org/time/1/9/9/4/06/index.html,,1994-06,"Au Pellerin (Loire Atlantique), 1 témoin au volant de sa voiture observe la présence sur le côté de la route de 1 objet en forme de citron avec un câble sur le dessus et parsemé de multiples lumières. Ayant ralenti autour de 20 km/h l'objet avance sensiblement à la même vitesse et lorsque la voiture le rattrape, l'objet se dédouble en gardant sa forme et sa taille. L'objet ensuite accélére, tourne vers la droite, passe par-dessus un bosquet d'arbres avant de partir très rapidement à la verticale. Cette observation d'un phénomène silencieux, durant plusieurs mn, n'a pas été expliquée SEPRA: PAN classé D.","",1994-06
https://rr0.org/time/1/9/9/4/06/index.html,,1994-06,"A Vert-Saint-Denis (Seine-et-Marne), observation d'un triangle noir (10 cm à bout de bras), avec des feux verts aux 3 angles, allant vers Ste-Assise (armée) ""Fichier central des incidents de l'Actualité Phénoménale"", Banque OVNI, année 1994.","",1994-06
https://rr0.org/time/1/9/9/4/06/index.html,,1994-06,"A Riez (Alpes de Haute-Provence) 1 témoin signale avoir vu depuis son véhicule une sphère lumineuse qui descend au sol, puis redécolle en se divisant en 3. Le lendemain, les gendarmes sur place trouveront des militaires se servant d'un canon embusqués à l'endroit de l'observation. Bien que nous n'ayons aucune autre information, ces manœuvres militaires qui avaient lieu dans la région sont suceptibles d'expliquer le phénomène constaté SEPRA: PAN classé B.","",1994-06
https://rr0.org/time/1/9/9/4/06/index.html,,1994-06,"A La Ferté-sous-Jouarre (Seine-et-Marne), lors d'une patrouille de nuit, l'attention de 3 gendarmes est attirée par des lumières au-dessus de l'autoroute. En s'approchant ils constatent que ces lumières proviennent d'un objet triangulaire stationnaire a une distance non précisée du sol. Ayant arrêté leur vehicule, l'objet s'est approché doucement pour stationner au-dessus de la voiture des gendarmes. Lorsqu'ils redémarrent, l'objet part à une vitesse vertigineuse pour ne devenir qu'un point dans le ciel. Sans pouvoir préciser l'instant exact, les gendarmes constatent également l'arrêt des leurs équipements de communication à bord du véhicule. La durée de l'observation est de l'ordre de 10 mn, aucun bruit, ni fumée n'ont été constatés SEPRA: PAN classé D.","",1994-06
https://rr0.org/time/1/9/9/4/06/index.html,,1994-06,"A Neufchatel-en-Bray (Seine Maritime), 1 témoin circulant en voiture observe à une distance estimée à 8 km, 2 formes pyramidales sombres, sans feux ni lumières et stationnaires. Au détour de la route le témoin perd de vue ces 2 phénomènes. Un peu plus loin il retrouve une 3ème forme triangulaire noire qui vole au-dessus de sa voiture et à la même vitesse, environ 80 km/h. En quelques instants l'objet accélère et disparaît avec un bruit sourd et un chuintement aigü SEPRA: PAN classé D.","",1994-06