url,place,dateTime,description,sources,id
https://rr0.org/time/1/9/4/7/07/06/index.html,,1947-07-06,"3 femmes se promènent dans un champ et voient un objet circulaire, luminescent, paraissant flotter à proximité du sol, comme le ferait un dirigeable. Venant du sud, il se dirige vers elles avant de virer lentement vers le sud-ouest et de disparaître au-dessus d'une colline.","",1947-07-06
https://rr0.org/time/1/9/4/7/07/06/index.html,,1947-07-06,"William Ware Brazel répond à un appel de Frank Joyce, de la radio locale, qui demande à recueillir toute information locale, et lui raconte ce qu'il a trouvé.","",1947-07-06
https://rr0.org/time/1/9/4/7/07/06/index.html,,1947-07-06,"Brazel se rend à Roswell afin de signaler ce qu'il a vu et de montrer un échantillon des débris au sherif George Wilcox, qui décide de prévenir la base aérienne locale.","",1947-07-06
https://rr0.org/time/1/9/4/7/07/06/index.html,,1947-07-06,"Plusieurs officiers arrivent quelques mn après l'appel du sherif, examinent les débris, puis retournent à la base.","",1947-07-06
https://rr0.org/time/1/9/4/7/07/06/index.html,,1947-07-06,"Le colonel William Hugh Blanchard ordonne au major Marcel, responsable de la sécurité de la base, d'aller inspecter sans délais le champ de débris, conduit par Brazel, et de se faire accompagner. Marcel part avec la capitaine Sheridan Wear Cavitt Bourdais, Gildas, 2000-05.","",1947-07-06
https://rr0.org/time/1/9/4/7/07/06/index.html,,1947-07-06,"Un pilote fait s'écraser un ovni ""Pilot Claims 'Flying Saucer' Downed by Plane"", Daily Register de Harrisburg (Illinois), 1947-07-07.","",1947-07-06
https://rr0.org/time/1/9/4/7/07/06/index.html,,1947-07-06,"Dans la journée, à la base de l'USAF de Fairfield-Suisan (Californie), le capitaine de l'USAF James Burniston et sa fiancée observent durant 1 mn un objet sans ailes ni queue se balancer 3 fois de chaque côté puis s'envoler très rapidement vers le sud-est Cas Blue Book n° 36 non résolu.","",1947-07-06