url,place,dateTime,description,sources,id
https://rr0.org/time/1/9/8/7/05/index.html,,1987-05,1er essai de la fusée soviétique Energya.,"",1987-05
https://rr0.org/time/1/9/8/7/05/index.html,,1987-05,"Le phénomène apparu à Waterbury le 26, photographié par un policier A Waterbury (Connecticut), Randy Etting (résidant Newtown, pilote de ligne depuis plus de 30 ans), fait une balade hors de chez lui. En regardant le ciel, il voit de multiples lumières oranges et rouges approcher de l'ouest. Il se saisit de ses jumelles et appelle ses voisins pour qu'ils viennent voir. L'objet à ce moment est bien plus proche et semble être au-dessus de l'I-84, juste à l'est la maison de Etting. Les lumières miroitent comme la distortion de la chaleur d'un moteur, mais ne peut entendre aucun son. Alors que l'ovni passe au-dessus de la I-84, des voitures ds ruelles vers l'est et l'ouest commençent à se ranger de côté et s'arrêter. L'ovni présente un motif semi-circulaire de lumières multicolores très brillantes. 5 automobilistes rapporteront que, alors que l'objet devenait visible, un certain nombre de voitures perdirent de la puissance et dûrent se ranger sur le bord de la route. Un officier de la police d'État envoyé pour enquêter fait une photographie du phénomène qui sera analysée par Bruce Sargent Maccabee. Ses conclusions indiqueront que l'objet était énorme, peut-être de plusê0 pieds d'envergure, et que les lumières montraient un motif bien défini. Il indiquera aussi que les lumières semblaient clignoter très rapidement dans une sorte de séquence, donnant l'impression que certaines étaient floues alors que d'autres étaient nettes Hynek, J. & Imbrogno, Philip J. & Pratt: Night Siege (2nde edition), 1998, ISBN 1-56718-362-X.","",1987-05
https://rr0.org/time/1/9/8/7/05/index.html,,1987-05,"William L. Moore, associé de Jaime Shandera, annonce dans un communiqué de presse qu'il exposera de curieux documents impliquant 12 hauts responsables, tant militaires que politiques et scientifiques.","",1987-05
https://rr0.org/time/1/9/8/7/05/index.html,,1987-05,"Le phénomène sur le film de Crosia le 30 Devant l'église du petit village de Crosia (Calabre, Italie) où des miracles ont été signalés (visions de la Vierge, ""danse du soleil"" Comme a Fatima, statue se mettant à pleurer), et après que l'imminence d'un nouveau phénomène a été annoncée par un homme en transe, plus de 100 personnes voient arriver ce qu'ils pensent être la Vierge : uête boule de lumière de forte intensité qui grossit au fur et à mesure qu'elle se rapproche des témoins. À un moment donné, la boule se transforme en curieux aéromobile lenticulaire, nanti d'un trou en son centre, et de 2 ""échancrures"" sur ses bords, diamétralement opposées. Pendant plus de 6 mn, Pascal Campana, un coiffeur qui avait apporté sa caméra filme les évolutions de la chose : virages à angle aigu, démarrages foudroyants, arrêts subits, chutes brutales, remontées instantanées à la verticale, etc. L'histoire fera la une de tous les journaux locaux et de la presse spécialisée. La télévision italienne ira jusqu'à acheter le film de Campana 3 millions de lires. Il sera diffusé en exclusivité en avril 1988 dans l'émission Incroyable de la 2ᵉ chaîne de la RAI Anna Maria Turi, Sabato, 5 mars 1988, p. 9 < Sider, J.: ""En Italie : l'ovni de la Vierge"", Ultra Top Secret, pp. 434-435 Une copie sur bande video sera réalisée et analysée par Roberto Pinotti et Corrado Malaga du CUN. Leur analyse sur ordinateur concluera que le phénomène montre toutes les caractéristiques d'un appareil aérien matériel, mais que les manœuvres qu'il a effectuées indiqueraient qu'il doit plutôt s'agir d'une projection holographique tridimensionnelle, et non pas d'un objet en matière quelconque, car il a violé les règles établies en aéronautique (vitesse énorme supérieure à celle du son sans bang sonique ni éclatements de sa structure).","",1987-05