url,place,dateTime,description,sources,id
https://rr0.org/time/1/9/6/5/06/index.html,,1965-06,"Edward White est le 1er américain à sortir dans l'espace, durant P36M.","",1965-06
https://rr0.org/time/1/9/6/5/06/index.html,,1965-06,"3/4, 20ème orbite : Tandis que son co-pilote Ed White dors, l'astronaute James McDivitt observe un objet à travers le hublot de son Gemini 4, à environ 15 km de la capsule : il le décrit par radio comme ayant plusieurs longs tentacules, et a le temps de le photographier avant de le voir disparaître.","",1965-06
https://rr0.org/time/1/9/6/5/06/index.html,,1965-06,"À Delroy (Ohio), John Stavano ( fermier) entend une série d'explosions. Voir 2 jours plus tard Vallée, Jacques 1969.","",1965-06
https://rr0.org/time/1/9/6/5/06/index.html,,1965-06,"John Stavano découvre, après avoir entendu des explosions l'avant-veille, une curieuse formation sur le terrain. Les épis de blé semble avoir été tirés du sol, déracinés. L'affaire sera examinée par A. Candusso et Larray Moyers, délégués du Flying Saucer Investigating Committee, accompagnés de Garry Davis. Ils trouvent l'étrange configuration circulaire dans la ferme de Stavano située sur une crête. Au centre du cercle se trouve une dépression d'environ 28 pouces de diamètre. On l'explore avec une sonde mais on ne trouve qu'un sol meuble sur une profondeur de 9 pouces. Une bonne partie du blé a été déplacé, racines comprises, et des mottes de terre longues de quelques pouces ont été éparpillées. Les épis gisent à terre, en forme de rayon de roue. L'analyse des prélèvements de terre et de blé ne trouve aucun indice pouvant être causé par une explosion Vallée, Jacques 1969.","",1965-06