url,place,dateTime,description,sources,id
https://rr0.org/time/1/9/8/8/02/index.html,,1988-02,"Dans le pas de Calais, 2 témoins observent une boule de couleur verte se déplacer lentement d'est en ouest SEPRA: Cas de type C.","",1988-02
https://rr0.org/time/1/9/8/8/02/index.html,,1988-02,"la nuit A Givry (Saône-et-Loire), 2 automobilistes circulant sur la même route, mais à des heures différentes observent un phénomène lumineux. Une sphère émet une lumière blanche intense et semble se déplacer. Aucun bruit n'est entendu GEPAN: PAN classé C.","",1988-02
https://rr0.org/time/1/9/8/8/02/index.html,,1988-02,"L'ovni rend à nouveau visite à la demeure des Walters et Frances Walters, l'épouse de Ed, manque de peu d'être ""frappée"" par un rayon bleu — un événement que Walters s'arrangea pour fixer sur pellicule.","",1988-02
https://rr0.org/time/1/9/8/8/02/index.html,,1988-02,"Dans la région de Montélimar, lors du vol de liaison Lialog, le lieutenant de vaisseau Christophe Clachant : Nous revenons d'un vol de liaison sur Hyères à bord du biturbopropulseur Nord 262 ""Frégate"" de l'escadrille 11 S, un vol avec passagers comme tous les jeudis, en direction de la base aéronavale du Dugny-Le Bourget. En tant qu'enseigne de vaisseau, je suis chef de bord et j'occupe le siège droit. Le copilote, à gauche, conduit la machine. On vole à près de 400 km/h. Il y a une mer de nuages en dessous, mais il fait beau, un ciel crépusculaire superbe avec, vers l'ouest, du bleu et de l'orange. Et soudain, entre Montélimar et Moulins, on voit face au Nord une grande lumière blanche dorée très vive, juste au-dessus de l'horizon, comme une torche puissante qui paraît comme suspendue, stationnaire. Je dis alors à mon copilote : ""Tiens, t'as vu ?"" ""Ah oui ! C'est quoi ? Un avion ?"" Là, je suis formel : ""Ça brille tellement, ce n'est pas possible !"" et je décide d'appeler le contrôle : ""Il y a un point, quelque chose qui éclaire très fort... Est-ce que vous voyez quelque chose dans notre secteur Nord ?"" Le contrôleur me dit qu'il ne voit rien. Puis un commandant de bord d'Air Inter annonce à la radio, d'une voix très sûre : ""Mais non ! C'est un avion !"" Je réplique : ""Non ce n'est pas possible, ce n'est pas ça..."" Personne ne répond. Et puis d'un seul coup, au bout d'une minute, on a l'impression que ça descend et le phénomène disparaît. À notre retour, le ""pacha"" de notre escadrille n'a rien voulu entendre. On n'a pas du tout été pris au sérieux. J'ai été extrêmement troublé par cette observation... VSD 9808 H, p. 31.","",1988-02