url,place,dateTime,description,sources,id
https://rr0.org/time/1/9/7/4/07/index.html,,1974-07,Photographie le 19 en Argentine 2 cosmonautes entâment un séjour à bord de la station Saliout 3 à usage militaire.,"",1974-07
https://rr0.org/time/1/9/7/4/07/index.html,,1974-07,Fin du séjour de 14 jours de 2 cosmonautes à bord de la station Saliout 3 à usage militaire Observation (ci-contre) à Belotie (Yougoslavie).,"",1974-07
https://rr0.org/time/1/9/7/4/07/index.html,,1974-07,"Observation (ci-contre) à Balcarce (Argentine), Sr. Antonio Le Pere.","",1974-07