url,place,dateTime,description,sources,id
https://rr0.org/time/1/9/7/7/11/index.html,,1977-11,"A Rives (l'Isère), un physicien observe un disque lumineux blanc entouré d'un halo verdâtre, silencieux, se déplacer dans le ciel, puis s'immobiliser et repartir à grande vitesse dans une autre direction. 2 autres personnes ont aperçu l'ovni indépendamment.","",1977-11
https://rr0.org/time/1/9/7/7/11/index.html,,1977-11,"La nuit Un vieil homme de Llandudno est effrayé par des rayons inhabituels dans le ciel au-dessus du Great Orme. Une famille voyageant à travers les North Wales roule près du village de Llandernog, dans le Denbighshire. Ils voient un appareil triangulaire pourpre qui enlève leur voiture. Lorsqu'ils reprennent leurs esprits, l'objet pourpre semble s'évanouir. La famille a perdu plusieurs heures mais ne peut se souvenir de rien de ce qui s'est passé durant cette période. Dans le même temps, un autre homme roulant le long de la route de Llandernog cette nuit-là déclare avoir vu un vaisseau spatial aussi gros qu'un terrain de football avec des centaines de lumières brillantes en émanant. L'homme dont la famille a été enlevée aurait été instruit par la RAF de ne pas parler publiquement de ce qui lui était arrivé.","",1977-11
https://rr0.org/time/1/9/7/7/11/index.html,,1977-11,"Have Blue (#1001), le prototype de chasseur furtif F-117A, arrive à Groom Lake pour des vols d'essai Peebles, Curtis. Dark Eagles, Presido Press, 1995.","",1977-11