url,place,dateTime,description,sources,id
https://rr0.org/time/1/9/9/4/12/index.html,,1994-12,"Dessin l'ovni observé le 3 à 17:00 Dans la région de Sutton-in-Ashfield (Notts), Andy Emmerson observe un ovni triangulaire (ci-contre) pendant 30 mn environ.","",1994-12
https://rr0.org/time/1/9/9/4/12/index.html,,1994-12,"Alexandre Rempel, chercheur de Vladivostock qui a enquêté sur l'affaire de Tunguska, les ovnis et les divers cultes proliférant en Russie, disparaît. Nul se sait ce que sont devenus ses archives et tous ses dossiers.","",1994-12
https://rr0.org/time/1/9/9/4/12/index.html,,1994-12,"A Saint-Germain-en-Laye (Yvelines), un témoin et son ami observent un objet tournant sur lui-même avec des lumières en dessous. Cet objet, en forme de soucoupe, a une dimension estimée à 200 m. Cet objet de fait aucun bruit et tourne sur lui-même. Un second témoin n'a pas désiré témoigner SEPRA: PAN classé D.","",1994-12
https://rr0.org/time/1/9/9/4/12/index.html,,1994-12,"A Plerin (Côtes d'Armor), 2 témoins qui circulent en voiture observent des lumières bleues comme des éclairs, se produisant successivement et changeant de place. Les témoins décident de se diriger vers ce phénomène mais sont ""arrêtés"" par une barrière lumineuse stationnaire à 1,5 m du sol environ. Ils ressentent alors des sensations de chaleur désagréables et décident de quitter les lieux au plus vite. La veille ainsi que le lendemain et le surlendemain 2 autres personnes sont témoins de phénomènes analogues, soit vers 19:00, soit vers 06:00-06:30 SEPRA: PAN classé D.","",1994-12