url,place,dateTime,description,sources,id
https://rr0.org/time/1/9/4/7/08/index.html,,1947-08,"A Arèches (Savoie), plusieurs personnes voient apparaître plusieurs silhouettes sombres devant le ciel lumineux du coucher de soleil, qui en s'approchant se révèlent être des soucoupes ""Arêches, 1er août 1947"", Phénomènes Spatiaux n° 16, juin 1968, pp. 26-27.","",1947-08
https://rr0.org/time/1/9/4/7/08/index.html,,1947-08,"Le Lancastrian Star Dust de la compagnie britannique South Americain Airways vole au-dessus des Andes. Malgré la tombée de neige, quelques mn avant d'atterir à Santiago du Chili, l'opérateur radio de l'avion Dennis Harmer émet un message en Morse pour annoncer une bonne arrivée : ETA Estimated Time of Arrival Santiago 17.45 hrs STENDEC. Le rapport officiel à ce sujet sera le suivant : Le signal de 17.41 fut reçu par Santiago seulement 4 minutes avant l'ETA. L'opérateur radio chilien à Santiago indique que le signal fut reçu fort et clair mais qu'il fut donné très rapidement. Ne comprenant pas le mot ""STENDEC"" il demanda et reçu le même mot répété par l'appareil 2 fois successivement. Aucune explication au mot ""STENDEC"" n'a été trouvée. A partir de ce moment plus rien ne fut entendu de la part de l'appareil et aucun contact ne fut établi avec la tour de contrôle à Santiago. Tous les appels suivants furent sans réponse. Ce dernier mot restera donc incompréhensible, comme la disparition de l'avion. On ne retrouvera l'appareil qu'en 2000-01.","",1947-08
https://rr0.org/time/1/9/4/7/08/index.html,,1947-08,"L'agent fédéral Coyne écrit dans un mémo adressé à l'un de ses sous-directeurs : nous n'avons aucune raison de considérer ces disques comme autre chose qu'une arme militaire, et, dans l'impossibilité d'attribuer la paternité de ces disques à la marine, à l'armée, ou aux soviétiques, suggère que le dossier soit entièrement remis à l'armée.","",1947-08
https://rr0.org/time/1/9/4/7/08/index.html,,1947-08,"Observation aux Moutiers Vallée, Jacques: 1966.","",1947-08
https://rr0.org/time/1/9/4/7/08/index.html,,1947-08,"A Bethel (Alabama), 2 pilotes voient un objet noir immense, plus grand qu'un C-54 sans moteurs, sans ailes ni aucun signe extérieur de moyen de propulsion, lisse et profilé, à contre-jour dans un ciel de soir brillant. Les pilotes font alors monter leur avion de 400 m et l'objet traverse leur trajectoire à 90. Ils suivent l'objet à distance durant 4 mn. GEPAN, Note d'information n° 3, 1981.","",1947-08
https://rr0.org/time/1/9/4/7/08/index.html,,1947-08,"Dans les Monts Cascade, F. M. Johnson, prospecteur de Portland, observe pendant 50 s et à la longue-vue 5 disques de 10 m de diamètre. Ceux-ci virent vers le Soleil sans aucun bruit. Pendant l'observation l'aiguille de sa montre-compas oscillait intensément de droite à gauche.","",1947-08
https://rr0.org/time/1/9/4/7/08/index.html,,1947-08,"A Fort Richardson (Alaska), 2 officiers observent la progression à vitesse suprasonique d'une sphère de 3 m de diamètre, sans traînée GEPAN, Note d'information n° 3, 1981.","",1947-08
https://rr0.org/time/1/9/4/7/08/index.html,,1947-08,"A Oklahoma City, un pilote au sol voit quelque chose de la taille de 6 B-29, blanc, circulaire, lisse, se déplaçant à une vitesse estimée à 2400 km/h GEPAN, Note d'information n° 3, 1981.","",1947-08
https://rr0.org/time/1/9/4/7/08/index.html,,1947-08,"A Las Vegas (Nevada), un objet rond orange descend par 2 fois au faîte des arbres Hynek, Josef Allen: 1979.","",1947-08
https://rr0.org/time/1/9/4/7/08/index.html,,1947-08,"09:30 A Salmon Dam, Twin Falls (Idaho), L. W. Hawkins observe 2 disques reflétant la lumière et se déplaçant à très grande vitesse en haute altitude Hynek 1979. 13:00 Dans le canyon de la rivière Snake, près de Twin Falls (Idaho), A. C. Urie et ses 2 fils (Keith, 8 ans et Billy, 10 ans) observent à 90 m de distance un disque en forme d'assiette renversée à 25 m d'altitude se déplaçant à 1600 km/h environ. L'objet est bleu pâle, possède un bourrelet rouge au sommet aplati du dôme, mesure 6 m de diamètre et 3,5 m d'épaisseur. Il adopte une trajectoire épousant le relief, agitant fortement les cîmes des arbres Brosnan, John: ""Heads up, folks! The disks are flying again"", Times News de Twin Falls (Idaho), vendredi 15 août 1947 Rapport d'enquête du FBI ATIC/Project Sign report ""Case IX (Serial 0066.00)"", Blue Book Special Report n° 14, 5 mai 1955, p. 78 Hynek, J. A.: Hynek UFO report, dell, 1977, pp. 34-36 ""Keith"" Urie avoua en avril 2008 avoir monté toute l'histoire avec son frère, et que son père en était arrivé à croire que c'était vrai.","",1947-08
https://rr0.org/time/1/9/4/7/08/index.html,,1947-08,"09:00 A Raveo, Carnia (Italie), R. L. Johannis voit 1 disque sur le sol et 2 nains de moins de 1 m, portant des combinaisons bleu foncé avec des cols et des ceinturons rouges. Ils ont des têtes disproportionnées, des figures verdâtres, d'énormes yeux sombres et saillants sans cil ni sourcil, montrant un muscle en anneau. Ils portent des sortes de casques de protection. Le centre de leur ceinture projeta une ""vapeur"" et le témoin suffoqua, en sentant une forte décharge électrique. Les créatures avaient des mains verdâtres avec 8 doigts semblables à des serres Bowen, Charles: Humanoids 2. p.126.","",1947-08
https://rr0.org/time/1/9/4/7/08/index.html,,1947-08,"A Twin Falls (Idaho), pendant 50 mn, plusieurs passages d'ovnis en formation triangulaire de 3 à 12 engins sont observées par 5 démoins, dont 2 policiers Hynek 1979.","",1947-08
https://rr0.org/time/1/9/4/7/08/index.html,,1947-08,"dans la soirée 12 ovoïdes de la taille d'un B-29 sans ailes sont observés en losange serré. Ils effectuent unre descente, s'arrêtent à un palier, puis effectuent un vaste virage et enfin une ascension rapide à 40°, à une vitesse de 600 km/h. Hynek, 1979.","",1947-08