url,place,dateTime,description,sources,id
https://rr0.org/time/1/9/3/2/index.html,,1932,"Couverture de Wonder Stories Quaterly n° 3, vol. 3 du printemps Klotz, Jim < UFOPOP Aux Etats-Unis, plus de 13 millions de chômeurs, et presque toutes les banques sont fermées.","",1932
https://rr0.org/time/1/9/3/2/index.html,,1932,"Disparition de l'équipage du Baychino Gaston, P.: ""De formidables enigmes sur la mer"", chap. 1 de Disparitions Mystérieuses, 1973, p. 46.","",1932
https://rr0.org/time/1/9/3/2/index.html,,1932,1932-05-03 Mort de Charles Hoyt Fort. Photo de Sutton.,"",1932
https://rr0.org/time/1/9/3/2/index.html,,1932,"Eté A Oradea (Roumanie), un disque jaune est observé entre 200 et 300 m d'altitude, se déplaçant vers le Sud-Ouest au-dessus du parc. Le disque est éclairé et laisse une traînée derrière lui. L'observation dure P2S/3S. et est vécue par d'autres personnes Lucaci Victor, économiste, Bucarest.","",1932
https://rr0.org/time/1/9/3/2/index.html,,1932,"Au large des côtes du Groenland, l'avion du lieutenant-colonel Peter Grunnet et du lieutenant Tage Anderson de la RDAF est suivi par un ovni. Cela ne ressemblait en rien aux machines de l'époque, se souvient Grunnet, c'était de forme hexagonale, plat, en aluminium, avec une surface complètement lisse et dépourvue de rivets. Ca m'a fait froid dans le dos, je ne sais pas pourquoi. Quel que soit l'être qui se trouvait à bord du vaisseau, c'est comme si j'avais senti sa présence... une présence hostile...","",1932
https://rr0.org/time/1/9/3/2/index.html,,1932,Nov Réélection de Franklin Delano Roosevelt.,"",1932