url,place,dateTime,description,sources,id
https://rr0.org/time/1/9/7/8/10/index.html,,1978-10,"A Sayama (Japon), observation d'Hideichi Amano.","",1978-10
https://rr0.org/time/1/9/7/8/10/index.html,,1978-10,"A Cambrai (Nord), 2 témoins voient au-dessus des champs face à leur habitation une sphère lumineuse de couleur feu et stationnaire. Un cercle rouge non complet entoure l'objet. Le phénomène d'une luminosité variable dure P10M environ avant de disparaître progressivement dans la nuit. Aucun bruit n'est entendu durant l'observation et la disparition du phénomène GEPAN : PAN classé C.","",1978-10
https://rr0.org/time/1/9/7/8/10/index.html,,1978-10,"Sur Troyes et Reims, 2 personnes observent le passage d'un phénomène de forme allongée qui les intrigue. Des lumières colorées sont également aperçues Aucun phénomène anormal n'a été détecté au centre de détection satellite de l'Aube. Le service technique de l'aérodrome de Barberey-Saint-Sulpice informera la gendarmerie qu'aucune observation inhabituelle n'a été signalée pour ces jours là. Ces témoins ont probablement observé le passage d'un aéronef GEPAN : PAN classé B.","",1978-10
https://rr0.org/time/1/9/7/8/10/index.html,,1978-10,1 des 2 témoins du 13 fait une observation similaire.,"",1978-10
https://rr0.org/time/1/9/7/8/10/index.html,,1978-10,"1978-10-21 18:19 A Moorabbin (Melbourne, Australie), Frederik Valentich décolle pour King Island (Détroit de Bass, Australie). 1978-10-21 19:06 Frederik Valentich appelle le contrôle au sol de Melbourne pour lui signaler qu'un appareil non identifiable vole autour de lui. La communication s'interrompt. 1978-10-21 19:28 Les recherches pour retrouver l'appareil de Frederik Valentich commencent et dureront une semaine, sans succès.","",1978-10
https://rr0.org/time/1/9/7/8/10/index.html,,1978-10,"À Hinckley’s Hollycroft Hill, Michel Roberts voit un phénomène de forme triangulaire, entouré de lumières Roberts, Michel: ""Burbage historian recalls Hinckley's UFO"", The Hincley Times, 2016-01-06","",1978-10
https://rr0.org/time/1/9/7/8/10/index.html,,1978-10,La Une de The Australian sur la disparition de Frederik Valentich,"",1978-10
https://rr0.org/time/1/9/7/8/10/index.html,,1978-10,"A Falcone (principauté de Piombino, Italie), 2 pêcheurs voient un objet lumineux en forme de cloche sortir de la mer avec un son métallique et s'envoler à 50 m d'eux Cappa et Winter 1979 > Haines et Vallée 1989.","",1978-10