url,place,dateTime,description,sources,id
https://rr0.org/time/1/9/0/2/index.html,,1902,"16T03:00 A Little Chute (Wisconsin), le marshal de la ville voit un vaisseau aérien de la forme d'un bateau de 40 pieds de long et portant 4 lumières, apparemment à plusieurs miles de distance. Le phénomène descendit presque à l'horizon puis remonte vers le haut jusqu'à être proche du zenith et disparaît au sud ""Visions of Airship Excite Population"", Daily Gazette de Janesville (Wisconsin), 19 juin 1902. 17T~03:00 A Little Chute (Wisconsin), un témoin fait une observation semblable à celle de la veille ""Visions of Airship Excite Population"", Daily Gazette de Janesville (Wisconsin), 1902-06-19.","",1902
https://rr0.org/time/1/9/0/2/index.html,,1902,"01 peu après 03:00 A Dubuque (Iowa), on observe un vaisseau aérien monstrueux passer à grande vitesse au-dessus de la ville vers l'ouest, portant des lumières rouges et vertes McGregor < ""The City In Brief"", Telegraph-Herald de Dubuque (Iowa), 1er 1902-07.","",1902
https://rr0.org/time/1/9/0/2/index.html,,1902,"04 A Oslofjorden (Norvège), des gens sur un bâteau voient un monstre marin arrondi, d'environ 60 pieds de long Bord/Bord: Modern mysteries of the world, 1989, 346. 28T03:05 Dans l'Atlantique Sud, des marins du Fort Salisbury aperçoivent par mer calme, et sous un ciel étoilé, un long objet sombre à quelques dizaines de mètres du navire. L'homme de veille l'ayant alerté, cet objet est rapidement localisé par A. H. Haymer (Rayner ?). Celui-ci racontera : C'était un peu effrayant. L'obscurité nous empêêobserver les détails, mais c'était long de 150 à 180 m. Il y avait un feu à chaque extrémité. Un mécanisme de quelque sorte - des nageoires peut-être - agitait l'eau. L'objet paraît s'enfoncer lentement. Personne ne pense un instant qu'il peut s'agir d'un navire en train de chavirer car la surface n'est pas unie comme elle aurait pu l'être, mais semble ""écailleuse"". Bien que des vérifications soient faites par la suite, rien ne permettra de déterminer la nature de cet étrange objet Fort, Charles Hoy:642 Vallée, Jacques: Anatomy, 20.","",1902
https://rr0.org/time/1/9/0/2/index.html,,1902,"Au-dessus de Boschof (Oranjevrystaat, Afrique du Sud), d'inhabituelles explosions dans le ciel se font entendre UFO Roundup 4-36.","",1902