url,place,dateTime,description,sources,id
https://rr0.org/time/1/9/5/2/03/index.html,,1952-03,"le docteur Walter Riedel, ancien Scientifique Allemand spécialiste des fusées à Peenemunde déclare Je suis convaincu que les soucoupes ont un fondement hors de notre monde Life, 7 avril 1952.","",1952-03
https://rr0.org/time/1/9/5/2/03/index.html,,1952-03,Fin du projet Grudge et lancement public du projet Blue Book.,"",1952-03
https://rr0.org/time/1/9/5/2/03/index.html,,1952-03,"À Oakland (Californie), un Inspecteur de l'Ingéniérie des Métaux observent 2 objets sombres en forme d'aile ou d'hémisphère le survoler, l'un balançant d'avant en arrière comme un pendule.","",1952-03
https://rr0.org/time/1/9/5/2/03/index.html,,1952-03,À Queen Annes City / Centreville (Maryland) le vétéran de la 1ʳᵉ et 2de guerre mondiale A. D. Hutchinson et son fils observent durant P30S une lumière d'un jaune-orange terne en forme de soucoupe se déplacer tout droit Cas Blue Book n° 1074 non expliqué.,"",1952-03
https://rr0.org/time/1/9/5/2/03/index.html,,1952-03,"(1952-03-22?) À Yakima (Washington), le pilote et l'opérateur radar d'un jet d'interception F-94 observent à 2 reprises une boule lumineuse de couleur rouge augmenter de luminosité puis s'atténuer au bout de P45S. À chaque fois l'objet est resté stationnaire. Le Rapport de Statut N°7 du project Blue Book (31 mai 1952) indique que l'objet a également été détecté par le radar au sol à une vitesse de 78 nœuds ( 90 miles/h ) à une altitude entre 22500 pieds et 25000 pieds Cas Blue Book n° 1076 non expliqué.","",1952-03
https://rr0.org/time/1/9/5/2/03/index.html,,1952-03,"À 60 miles à l'ouest de Point Conception (Californie), le navigateur et l'opérateur radar d'un B-29 repère une cible durant P20S/30S, dont la vitesse est estimée à 3000 miles/h Cas Blue Book n° 1077 non expliqué.","",1952-03
https://rr0.org/time/1/9/5/2/03/index.html,,1952-03,"1952-03-29 11:20 Près de Misawa (Japon), observation de Brigham. A Butler (Missouri), le Président de la Commission sur l'Industrie du Missouri observent un objet argenté de forme cylindrique. Dans le sud du Congo Belge, au-dessus d'une mine d'uranium, observation de 2 soucoupes effectuant des courbes élégantes","",1952-03