url,place,dateTime,description,sources,id
https://rr0.org/time/1/9/8/4/08/index.html,,1984-08,"A Lanslebourg (Savoie), 1 témoin voit durant 3 s un phénomène d'aspect cylindrique, fixe, puis qui se met en mouvement. L'observation aux jumelles lui permet de voir une rampe de couleur jaune sur l'axe du cylindre et parallèle au sens du déplacement GEPAN: PAN classé C.","",1984-08
https://rr0.org/time/1/9/8/4/08/index.html,,1984-08,"Ariane 3 lance Télécom 1A, premier satellite du réseau français de télécom.","",1984-08
https://rr0.org/time/1/9/8/4/08/index.html,,1984-08,"Lors d'auditions au Congrès sur la saisie de terrains, John Rittenhouse (représentant l'USAF) déclare que bien que l'USAF n'ait pas eu d'autorité légale pour saisir le terrain autour de Groom Lake (autant qu'il puisse le savoir), la décision fut prise de le faire à un plus haut niveau que le sien. Il fournit plus de détails lors d'une session à hui clos Los Angeles Times, 19 novembre 1955.","",1984-08
https://rr0.org/time/1/9/8/4/08/index.html,,1984-08,"A 5000 pieds d'altitude près de Ipswitch (Suffolk), un Trislander Kondair, vol cargo reliant Stansted à Amsterdam, subit de légères turbulences lorsqu'il ressent comme un choc. Rien de fâcheux n'étant constaté aux instruments cependant, le vol se poursuit, jusqu'au moment de la descente (à Schipol (Pays-Bas) ?) où l'on découvre que le moteur droit est à l'arrêt. Après une mise en roue libre de ce moteur et un atterrissage asymétrique, on constate que le moteur gauche a été percuté, son bord étant endommagé et une de ses pales étant tordue. Plusieurs trous dans le fuselage également (jusqu'à 4,5 pouces) dont 1 a sectionné 3 câbles qui commandaient le moteur droit, le câble d'aileron et le compensateur de direction. On trouvera des objets métalliques étrangers à l'appareil (un ressemblant à une bougie, un autre un petit aimant cylindrique, et mention d'un n° de série non identifié), ce qui exclut l'hypothèse d'une collision avec un oiseau. La CAA exclut aussi que les objets proviennent d'un ballon météo/radio sonde et indique qu'aucun autre objet aérien connu n'était répertorié à ce moment dans cette zone ""Propeller damaged and cabin holed by Unidentified Flying Object"" (OCC NR 84/0280), Occurrence Digest 84/D/43, CAA, 1984 Reply letter to FOIA Request, CAA, p. 26 Facteur X, n° 10.","",1984-08
https://rr0.org/time/1/9/8/4/08/index.html,,1984-08,"A Coulaines (Sarthe), 2 témoins voient 1 grosse lumière blanche immobile en-dessous de la lune. Durant les 10 mn d'observation qui vont suivre, cette lumière s'allonge pour prendre la forme d'un ballon de rugby, vient se placer au-dessus de la lune et prend la forme de 2 lumières blanches distinctes. Ces lumières semblent d'après les témoins être raccordées entre elles par une masse compacte. Aucun bruit, aucune trace de fumée n'ont été constatés. Le phénomène va disparaître brusquement GEPAN: PAN classé C.","",1984-08