url,place,dateTime,description,sources,id
https://rr0.org/time/1/9/8/4/12/index.html,,1984-12,"(1986?) A Ermont (Val d'Oise), observation de 2 boules lumineuses tournantes et ne disposant pas de projecteur Gazette du Val-d'Oise, 16 juillet 1997.","",1984-12
https://rr0.org/time/1/9/8/4/12/index.html,,1984-12,Un film 35 mm contenant le document MJ de briefing du président Eisenhower est laissé sur le seuil de la porte de Jaime Shandera.,"",1984-12
https://rr0.org/time/1/9/8/4/12/index.html,,1984-12,Lancement de la sonde Véga 1 vers Vénus. Elle survolera la comète de Halley.,"",1984-12
https://rr0.org/time/1/9/8/4/12/index.html,,1984-12,Lancement de la sonde Véga 2 vers Vénus. Elle survolera la comète de Halley.,"",1984-12